…
5. Wie bereits geschildert führen die Autor:innen die Analyse des Datensatzes getrennt für die beiden Jahrgänge durch. Finden Sie heraus, wie man mit dem `dplyr`-Paket die Daten nach dem Merkmal `Year` filtern und einen Subdatensatz erstellen könnte, in dem nur der jüngere Jahrgang enthalten ist. Bestimmen Sie den Mittelwert der Variable `Total_Competence_Maths` in diesem Subdatensatz.

<details><summary>Lösung</summary>

In `dplyr` können wir die Funktion `filter()` nutzen, um die Daten nach bestimmten Kriterien zu filtern. Hier wollen wir die Daten nach dem Merkmal `Year` filtern. Die Anwendung benötigt die Angabe des Datensatzes und der Bedingung, die erfüllt sein muss. 


```r
###### Aufgabe 5 ------
filter(data, Year == "7. Schuljahr")  # Filtern der Daten nach dem Merkmal Year
```

```
## # A tibble: 187 × 25
##    Year   Gender Ethnicity Total_Mindset Total_Competence_Maths Total_Competence_Eng…¹
##    <fct>  <fct>  <fct>             <dbl>                  <dbl>                  <dbl>
##  1 7. Sc… weibl… White Br…            36                      4                      3
##  2 7. Sc… weibl… White Br…            34                      2                      4
##  3 7. Sc… weibl… White Br…            28                      4                      4
##  4 7. Sc… weibl… White Br…            38                      4                      4
##  5 7. Sc… weibl… White Br…            26                      3                      3
##  6 7. Sc… weibl… White Br…            29                      4                      4
##  7 7. Sc… weibl… White Br…            32                      3                      4
##  8 7. Sc… weibl… White Br…            31                      4                      3
##  9 7. Sc… weibl… White Br…            28                      3                      5
## 10 7. Sc… weibl… White Br…            30                      5                      4
## # ℹ 177 more rows
## # ℹ abbreviated name: ¹​Total_Competence_English
## # ℹ 19 more variables: Total_Competence_Science <dbl>, Total_SelfEsteem <dbl>,
## #   Total_SocialSelfEsteem <dbl>, Total_AcademicSelfEfficacy <dbl>,
## #   Total_SelfConcept_Maths <dbl>, Total_SelfConcept_English <dbl>,
## #   Total_SelfConcept_Science <dbl>, SubjectSTEndorsement_Maths <dbl>,
## #   SubjectSTEndorsement_English <dbl>, SubjectSTEndorsement_Science <dbl>, …
```
…
