…
``` r
data[,1]    # erste Spalte anzeigen lassen
```

```
## # A tibble: 300 × 1
##    Year 
##    <chr>
##  1 Year7
##  2 Year7
##  3 Year7
##  4 Year7
##  5 Year7
##  6 Year7
##  7 Year7
##  8 Year7
##  9 Year7
## 10 Year7
## # ℹ 290 more rows
```

Anstelle einer Zahl kann auch der Name der jeweiligen Zeile oder Spalte verwendet werden. Üblicherweise haben nur die Spalten in unseren Datensätzen Namen, aber diese sind uns dafür umso besser bekannt, da es die Variablennamen sind.


``` r
data[ , "Year"]    # Spalte Year anzeigen lassen
```

```
## # A tibble: 300 × 1
##    Year 
##    <chr>
##  1 Year7
##  2 Year7
##  3 Year7
##  4 Year7
##  5 Year7
##  6 Year7
##  7 Year7
##  8 Year7
##  9 Year7
## 10 Year7
## # ℹ 290 more rows
```
…
``` r
library(dplyr)   # Laden des Pakets
```

Die Auswahl einzelner Spalten funktioniert in `dplyr` mit der Funktion `select()`. In `dplyr` ist es üblich, den Datensatz immer als Startpunkt zu benutzen und dann mit Pipes zu arbeiten. Allerdings wird nicht die native Pipe aus R verwendet, sondern die Pipe aus dem Paket `magrittr`, die mit `%>%` aufgerufen wird. Dieses wird bei der Installation von `dyplyr` automatisch mitinstalliert und auch beim Aufruf aktiviert, also müssen wir uns hierum keine Gedanken machen.


``` r
data %>% select(Year)   # dplyr Funktion zur Auswahl einer Spalte (Year)
```

```
## # A tibble: 300 × 1
##    Year 
##    <chr>
##  1 Year7
##  2 Year7
##  3 Year7
##  4 Year7
##  5 Year7
##  6 Year7
##  7 Year7
##  8 Year7
##  9 Year7
## 10 Year7
## # ℹ 290 more rows
```
…
Bisher haben wir den Mittelwert nur auf einer Variable über die gesamte Stichprobe hinweg bestimmt. Allerdings benötigen wir auch oft deskriptive Informationen für einzelne Gruppen. Stellen wir uns also vor, wir wollen die Höhe des allgemeinen Selbstwertgefühls getrennt für unsere drei Achiever-Gruppen betrachten. 

In `dplyr` gibt es dafür die Funktion `group_by()`. Diese erwartet als Argument die Variable, nach der gruppiert werden soll.  


``` r
#### Erstellen Gruppierter Deskriptivstatistiken ----
# Gruppierung nach Achiever
data %>%
  group_by(Achiever) 
```

```
## # A tibble: 300 × 27
## # Groups:   Achiever [3]
##    Year        Gender Ethnicity Total_Mindset Total_Competence_Maths Total_Competence_Eng…¹
##    <fct>       <fct>  <chr>             <dbl>                  <dbl>                  <dbl>
##  1 7. Schulja… weibl… White Br…            36                      4                      3
##  2 7. Schulja… weibl… White Br…            34                      2                      4
##  3 7. Schulja… weibl… White Br…            28                      4                      4
##  4 7. Schulja… weibl… White Br…            38                      4                      4
##  5 7. Schulja… weibl… White Br…            26                      3                      3
##  6 7. Schulja… weibl… White Br…            29                      4                      4
##  7 7. Schulja… weibl… White Br…            32                      3                      4
##  8 7. Schulja… weibl… White Br…            31                      4                      3
##  9 7. Schulja… weibl… White Br…            28                      3                      5
## 10 7. Schulja… weibl… White Br…            30                      5                      4
## # ℹ 290 more rows
## # ℹ abbreviated name: ¹​Total_Competence_English
## # ℹ 21 more variables: Total_Competence_Science <dbl>, Total_SelfEsteem <dbl>,
## #   Total_SocialSelfEsteem <dbl>, Total_AcademicSelfEfficacy <dbl>,
## #   Total_SelfConcept_Maths <dbl>, Total_SelfConcept_English <dbl>,
## #   Total_SelfConcept_Science <dbl>, SubjectSTEndorsement_Maths <dbl>,
## #   SubjectSTEndorsement_English <dbl>, SubjectSTEndorsement_Science <dbl>, …
```
…
