…
```r
data[,1:3]
```

```
## # A tibble: 153 × 3
##    prok1 prok2 prok3
##    <dbl> <dbl> <dbl>
##  1     1     3     4
##  2     4     3     2
##  3     3     3     2
##  4     2     1     4
##  5     2     4     2
##  6     2     2     3
##  7     2     3     2
##  8     4     3     2
##  9     2     3     3
## 10     3     1     2
## # ℹ 143 more rows
```

```r
data[,c("prok1", "prok2", "prok3")]
```

```
## # A tibble: 153 × 3
##    prok1 prok2 prok3
##    <dbl> <dbl> <dbl>
##  1     1     3     4
##  2     4     3     2
##  3     3     3     2
##  4     2     1     4
##  5     2     4     2
##  6     2     2     3
##  7     2     3     2
##  8     4     3     2
##  9     2     3     3
## 10     3     1     2
## # ℹ 143 more rows
```

Diese Möglichkeit der Auswahl von Zeilen oder Spalten lässt sich auch mit der bereits gelernten Logik verknüpfen.  Wir können beispielsweise alle Zeilen auswählen, für die die Ausprägung einer Variable einer bestimmten Bedingung entspricht: 


```r
data[data$geschl_faktor == "weiblich" | data$geschl_faktor == "männlich",]
```

```
## # A tibble: 152 × 37
##    prok1 prok2 prok3 prok4 prok5 prok6 prok7 prok8 prok9 prok10
##    <dbl> <dbl> <dbl> <dbl> <dbl> <dbl> <dbl> <dbl> <dbl>  <dbl>
##  1     1     3     4     2     3     4     3     3     1      3
##  2     4     3     2     4     1     4     2     4     4      4
##  3     3     3     2     4     2     4     2     3     4      3
##  4     2     1     4     3     2     1     2     4     1      1
##  5    NA    NA    NA    NA    NA    NA    NA    NA    NA     NA
##  6     2     2     3     2     3     2     3     3     2      1
##  7     2     3     2     3     4     2     3     4     3      1
##  8     4     3     2     4     2     4     3     2     4      4
##  9     2     3     3     1     3     2     3     4     2      1
## 10     3     1     2     2     3     2     3     4     3      4
## # ℹ 142 more rows
## # ℹ 27 more variables: nr1 <dbl>, nr2 <dbl>, nr3 <dbl>,
## #   nr4 <dbl>, nr5 <dbl>, nr6 <dbl>, lz <dbl>, extra <dbl>,
## #   vertr <dbl>, gewis <dbl>, neuro <dbl>, intel <dbl>,
## #   nerd <dbl>, grund <chr>, fach <chr>, ziel <chr>,
## #   lerntyp <chr>, geschl <dbl>, job <dbl>, ort <dbl>,
## #   ort12 <chr>, wohnen <dbl>, uni1 <dbl>, uni2 <dbl>, …
```
…
